[
  {
    "id": 1,
    "nombre": "STAND LISBOA 2020",
    "fechaAlta": "28/10/2004",
    "timeline": {
      "procesos": [
        {
          "id": 1,
          "nombre": "Diseño",
          "activo": false,
          "inicio": "2019-12-15",
          "fin": "2019-12-16",
          "responsable": "Juan"
        },
        {
          "id": 2,
          "nombre": "Taller",
          "activo": true,
          "inicio": "2019-12-17",
          "fin": "2019-12-22",
          "responsable": "Juan"
        },
        {
          "id": 3,
          "nombre": "Instalación",
          "activo": false,
          "inicio": "2019-12-23",
          "fin": "2019-12-25",
          "responsable": "Juan"
        },
        {
          "id": 4,
          "nombre": "Facturación",
          "activo": false,
          "inicio": "2019-12-26",
          "fin": "2019-12-29",
          "responsable": "Juan"
        },
        {
          "id": 5,
          "nombre": "Cobro",
          "activo": false,
          "inicio": "2019-12-30",
          "fin": "2019-12-31",
          "responsable": "Juan"
        }
      ]
    },
    "detalle": {
      "cliente": "objetoCliente",
      "marca": "objetoMarca"
    },
    "costes": [
      {
        "id": 1,
        "codigo": 23,
        "empresa": "Rotulos X",
        "descripcion": "Trabajos de tal",
        "presupuesto": 500,
        "coste": 300
      },
      {
        "id": 2,
        "codigo": 44,
        "empresa": "Rotulos X",
        "descripcion": "Trabajos de tal",
        "presupuesto": 500,
        "coste": 300
      },
      {
        "id": 3,
        "codigo": 76,
        "empresa": "Rotulos X",
        "descripcion": "Trabajos de tal",
        "presupuesto": 500,
        "coste": 300
      }
    ],
    "adjuntos": {
      "facturas": [
        {
          "id": 1,
          "url": "https://via.placeholder.com/300.png/09f/fff",
          "preview": "https://via.placeholder.com/300.png/09f/fff"
        },
        {
          "id": 2,
          "url": "https://via.placeholder.com/300.png/09f/fff",
          "preview": "https://via.placeholder.com/300.png/09f/fff"
        },
        {
          "id": 2,
          "url": "https://via.placeholder.com/300.png/09f/fff",
          "preview": "https://via.placeholder.com/300.png/09f/fff"
        }
      ],
      "documentos": [
        {
          "id": 1,
          "url": "https://via.placeholder.com/300.png/09f/fff",
          "preview": "https://via.placeholder.com/300.png/09f/fff"
        },
        {
          "id": 2,
          "url": "https://via.placeholder.com/300.png/09f/fff",
          "preview": "https://via.placeholder.com/300.png/09f/fff"
        },
        {
          "id": 2,
          "url": "https://via.placeholder.com/300.png/09f/fff",
          "preview": "https://via.placeholder.com/300.png/09f/fff"
        }
      ],
      "media": [
        {
          "id": 1,
          "url": "https://via.placeholder.com/300.png/09f/fff",
          "preview": "https://via.placeholder.com/300.png/09f/fff"
        },
        {
          "id": 2,
          "url": "https://via.placeholder.com/300.png/09f/fff",
          "preview": "https://via.placeholder.com/300.png/09f/fff"
        },
        {
          "id": 2,
          "url": "https://via.placeholder.com/300.png/09f/fff",
          "preview": "https://via.placeholder.com/300.png/09f/fff"
        }
      ]
    }
  },
  {
    "id": 2,
    "nombre": "STAND MADRID 2020",
    "fechaAlta": "11/12/2019",
    "timeline": {
      "procesos": [
        {
          "id": 1,
          "nombre": "Diseño",
          "activo": false,
          "inicio": "2019-12-11",
          "fin": "2019-12-12",
          "responsable": "Juan"
        },
        {
          "id": 2,
          "nombre": "Taller",
          "activo": true,
          "inicio": "2019-12-13",
          "fin": "2019-12-14",
          "responsable": "Juan"
        },
        {
          "id": 3,
          "nombre": "Instalación",
          "activo": false,
          "inicio": "2019-12-15",
          "fin": "2019-12-23",
          "responsable": "Juan"
        },
        {
          "id": 4,
          "nombre": "Facturación",
          "activo": false,
          "inicio": "2019-12-24",
          "fin": "2019-12-25",
          "responsable": "Juan"
        },
        {
          "id": 5,
          "nombre": "Cobro",
          "activo": false,
          "inicio": "2019-12-26",
          "fin": "2019-12-27",
          "responsable": "Juan"
        }
      ]
    },
    "detalle": {
      "cliente": "objetoCliente",
      "marca": "objetoMarca"
    },

    "costes": [
      {
        "id": 1,
        "codigo": 23,
        "empresa": "Rotulos X",
        "descripcion": "Trabajos de tal",
        "presupuesto": 500,
        "coste": 300
      },
      {
        "id": 2,
        "codigo": 44,
        "empresa": "Rotulos X",
        "descripcion": "Trabajos de tal",
        "presupuesto": 500,
        "coste": 300
      },
      {
        "id": 3,
        "codigo": 76,
        "empresa": "Rotulos X",
        "descripcion": "Trabajos de tal",
        "presupuesto": 500,
        "coste": 300
      }
    ],
    "adjuntos": {
      "facturas": [
        {
          "id": 1,
          "url": "https://via.placeholder.com/300.png/09f/fff",
          "preview": "https://via.placeholder.com/300.png/09f/fff"
        },
        {
          "id": 2,
          "url": "https://via.placeholder.com/300.png/09f/fff",
          "preview": "https://via.placeholder.com/300.png/09f/fff"
        },
        {
          "id": 2,
          "url": "https://via.placeholder.com/300.png/09f/fff",
          "preview": "https://via.placeholder.com/300.png/09f/fff"
        }
      ],
      "documentos": [
        {
          "id": 1,
          "url": "https://via.placeholder.com/300.png/09f/fff",
          "preview": "https://via.placeholder.com/300.png/09f/fff"
        },
        {
          "id": 2,
          "url": "https://via.placeholder.com/300.png/09f/fff",
          "preview": "https://via.placeholder.com/300.png/09f/fff"
        },
        {
          "id": 2,
          "url": "https://via.placeholder.com/300.png/09f/fff",
          "preview": "https://via.placeholder.com/300.png/09f/fff"
        }
      ],
      "media": [
        {
          "id": 1,
          "url": "https://via.placeholder.com/300.png/09f/fff",
          "preview": "https://via.placeholder.com/300.png/09f/fff"
        },
        {
          "id": 2,
          "url": "https://via.placeholder.com/300.png/09f/fff",
          "preview": "https://via.placeholder.com/300.png/09f/fff"
        },
        {
          "id": 2,
          "url": "https://via.placeholder.com/300.png/09f/fff",
          "preview": "https://via.placeholder.com/300.png/09f/fff"
        }
      ]
    }
  },
  {
    "id": 3,
    "nombre": "STAND LISBOA 2020",
    "fechaAlta": "07/12/2019",
    "timeline": {
      "procesos": [
        {
          "id": 1,
          "nombre": "Diseño",
          "activo": false,
          "inicio": "2019-11-27",
          "fin": "2019-11-29",
          "responsable": "Juan"
        },
        {
          "id": 2,
          "nombre": "Taller",
          "activo": true,
          "inicio": "2019-11-30",
          "fin": "2019-12-23",
          "responsable": "Juan"
        },
        {
          "id": 4,
          "nombre": "Facturación",
          "activo": false,
          "inicio": "2019-12-24",
          "fin": "2019-12-27",
          "responsable": "Juan"
        },
        {
          "id": 5,
          "nombre": "Cobro",
          "activo": false,
          "inicio": "2019-12-28",
          "fin": "2019-12-29",
          "responsable": "Juan"
        }
      ]
    },
    "detalle": {
      "cliente": "objetoCliente",
      "marca": "objetoMarca"
    },
    "personal": [
      {
        "proceso": "objetoProceso",
        "responsable": "objetoPersonal",
        "estado": "Finalizado"
      },
      {
        "proceso": "objetoProceso",
        "responsable": "objetoPersonal",
        "estado": "Finalizado"
      },
      {
        "proceso": "objetoProceso",
        "responsable": "objetoPersonal",
        "estado": "Finalizado"
      },
      {
        "proceso": "objetoProceso",
        "responsable": "objetoPersonal",
        "estado": "Pendiente"
      }
    ],
    "costes": [
      {
        "id": 1,
        "codigo": 23,
        "empresa": "Rotulos X",
        "descripcion": "Trabajos de tal",
        "presupuesto": 500,
        "coste": 300
      },
      {
        "id": 2,
        "codigo": 44,
        "empresa": "Rotulos X",
        "descripcion": "Trabajos de tal",
        "presupuesto": 500,
        "coste": 300
      },
      {
        "id": 3,
        "codigo": 76,
        "empresa": "Rotulos X",
        "descripcion": "Trabajos de tal",
        "presupuesto": 500,
        "coste": 300
      }
    ],
    "adjuntos": {
      "facturas": [
        {
          "id": 1,
          "url": "https://via.placeholder.com/300.png/09f/fff",
          "preview": "https://via.placeholder.com/300.png/09f/fff"
        },
        {
          "id": 2,
          "url": "https://via.placeholder.com/300.png/09f/fff",
          "preview": "https://via.placeholder.com/300.png/09f/fff"
        },
        {
          "id": 2,
          "url": "https://via.placeholder.com/300.png/09f/fff",
          "preview": "https://via.placeholder.com/300.png/09f/fff"
        }
      ],
      "documentos": [
        {
          "id": 1,
          "url": "https://via.placeholder.com/300.png/09f/fff",
          "preview": "https://via.placeholder.com/300.png/09f/fff"
        },
        {
          "id": 2,
          "url": "https://via.placeholder.com/300.png/09f/fff",
          "preview": "https://via.placeholder.com/300.png/09f/fff"
        },
        {
          "id": 2,
          "url": "https://via.placeholder.com/300.png/09f/fff",
          "preview": "https://via.placeholder.com/300.png/09f/fff"
        }
      ],
      "media": [
        {
          "id": 1,
          "url": "https://via.placeholder.com/300.png/09f/fff",
          "preview": "https://via.placeholder.com/300.png/09f/fff"
        },
        {
          "id": 2,
          "url": "https://via.placeholder.com/300.png/09f/fff",
          "preview": "https://via.placeholder.com/300.png/09f/fff"
        },
        {
          "id": 2,
          "url": "https://via.placeholder.com/300.png/09f/fff",
          "preview": "https://via.placeholder.com/300.png/09f/fff"
        }
      ]
    }
  }
]
